<?xml version="1.0" encoding="UTF-8" standalone="no"?>
<svg
   xmlns:dc="http://purl.org/dc/elements/1.1/"
   xmlns:cc="http://creativecommons.org/ns#"
   xmlns:rdf="http://www.w3.org/1999/02/22-rdf-syntax-ns#"
   xmlns:svg="http://www.w3.org/2000/svg"
   xmlns="http://www.w3.org/2000/svg"
   id="svg8"
   version="1.1"
   viewBox="0 0 172.38884 48.153534"
   height="48.153534mm"
   width="172.38884mm">
  <defs
     id="defs2" />
  <metadata
     id="metadata5">
    <rdf:RDF>
      <cc:Work
         rdf:about="">
        <dc:format>image/svg+xml</dc:format>
        <dc:type
           rdf:resource="http://purl.org/dc/dcmitype/StillImage" />
        <dc:title></dc:title>
      </cc:Work>
    </rdf:RDF>
  </metadata>
  <g
     transform="translate(-14.699824,-110.80439)"
     id="layer1">
    <g
       id="text817"
       style="font-style:italic;font-variant:normal;font-weight:bold;font-stretch:normal;font-size:30.41005516px;line-height:1.25;font-family:'Bourgeois Slab';-inkscape-font-specification:'Bourgeois Slab Bold Italic';letter-spacing:0px;word-spacing:0px;stroke-width:0.88019294"
       aria-label="Daydream+">
      <path
         id="path821"
         style="font-style:normal;font-variant:normal;font-weight:bold;font-stretch:normal;font-family:Steradian;-inkscape-font-specification:'Steradian Bold';stroke-width:0.88019294"
         d="m 23.608085,133.33824 c 3.375516,0 6.112421,-0.97312 8.271535,-2.91936 2.159113,-1.97666 3.223465,-4.59192 3.223465,-7.8458 0,-3.22346 -1.064352,-5.80832 -3.223465,-7.72415 -2.159114,-1.91584 -4.896019,-2.88896 -8.271535,-2.88896 H 15.45819 v 21.37827 z m -0.152051,-16.81676 c 4.044538,0 6.598982,2.28076 6.598982,6.0516 0,3.89249 -2.554444,6.20365 -6.598982,6.20365 h -3.162645 v -12.25525 z" />
      <path
         id="path823"
         style="font-style:normal;font-variant:normal;font-weight:bold;font-stretch:normal;font-family:Steradian;-inkscape-font-specification:'Steradian Bold';stroke-width:0.88019294"
         d="m 51.250774,133.33824 v -9.73122 c 0,-3.77084 -2.493624,-6.14283 -6.629392,-6.14283 -1.915833,0 -3.527566,0.54738 -4.835199,1.61174 -1.307632,1.06435 -2.007063,2.40239 -2.098294,4.01412 h 4.470279 c 0.12164,-1.12517 1.033941,-1.8246 2.371984,-1.8246 1.307632,0 2.159114,0.76025 2.159114,1.88542 v 0.15205 l -3.801257,0.85148 c -3.770847,0.85149 -5.50422,2.46322 -5.50422,5.16971 0,2.64568 2.067884,4.40946 5.078479,4.40946 1.824603,0 3.436336,-0.79066 4.409458,-2.15911 v 1.76378 z m -7.572104,-3.22346 c -1.185992,0 -1.763783,-0.45616 -1.763783,-1.39887 0,-0.85148 0.699431,-1.39886 2.189524,-1.73337 l 2.584855,-0.54738 v 0.51697 c 0,0.82107 -0.304101,1.58132 -0.912302,2.21993 -0.577791,0.63862 -1.277222,0.94272 -2.098294,0.94272 z" />
      <path
         id="path825"
         style="font-style:normal;font-variant:normal;font-weight:bold;font-stretch:normal;font-family:Steradian;-inkscape-font-specification:'Steradian Bold';stroke-width:0.88019294"
         d="m 61.225165,127.52992 -3.314696,-9.6704 H 53.01445 l 5.929961,15.93487 -2.098294,5.99078 h 4.652738 l 7.815385,-21.92565 h -4.774379 z" />
      <path
         id="path827"
         style="font-style:normal;font-variant:normal;font-weight:bold;font-stretch:normal;font-family:Steradian;-inkscape-font-specification:'Steradian Bold';stroke-width:0.88019294"
         d="m 77.555275,133.73357 c 2.15911,0 3.98371,-0.9123 5.23053,-2.64567 v 2.25034 h 4.34863 v -22.53385 h -4.62233 v 8.87974 c -1.18599,-1.45969 -2.88895,-2.21994 -4.92642,-2.21994 -2.15912,0 -3.922901,0.76025 -5.291354,2.31117 -1.368452,1.55091 -2.067883,3.49715 -2.067883,5.89955 0,2.34157 0.669021,4.28782 2.037473,5.80832 1.368453,1.49009 3.132234,2.25034 5.291354,2.25034 z m -2.49363,-8.11948 c 0,-2.31117 1.55091,-3.95331 3.83167,-3.95331 2.21993,0 3.77085,1.64214 3.77085,3.95331 0,2.28075 -1.55092,3.9533 -3.77085,3.9533 -2.28076,0 -3.83167,-1.67255 -3.83167,-3.9533 z" />
      <path
         id="path829"
         style="font-style:normal;font-variant:normal;font-weight:bold;font-stretch:normal;font-family:Steradian;-inkscape-font-specification:'Steradian Bold';stroke-width:0.88019294"
         d="m 99.693735,121.84324 c 0.334505,0 0.577785,0.0304 1.216395,0.15205 v -4.34864 c -0.24328,-0.0304 -0.57779,-0.0912 -0.942705,-0.0912 -1.85502,0 -3.43634,1.03394 -4.40946,2.94978 v -2.64568 h -4.40946 v 15.47872 h 4.62233 v -6.99431 c 0,-2.79773 1.39886,-4.50069 3.9229,-4.50069 z" />
      <path
         id="path831"
         style="font-style:normal;font-variant:normal;font-weight:bold;font-stretch:normal;font-family:Steradian;-inkscape-font-specification:'Steradian Bold';stroke-width:0.88019294"
         d="m 110.36759,130.02355 c -2.03747,0 -3.46674,-1.21641 -3.86207,-3.25388 h 11.95115 v -1.39886 c 0,-2.31117 -0.76025,-4.19659 -2.25035,-5.68668 -1.49009,-1.4901 -3.43633,-2.21994 -5.83873,-2.21994 -2.34157,0 -4.31823,0.79066 -5.89955,2.37199 -1.58132,1.55091 -2.37198,3.49715 -2.37198,5.77791 0,2.34157 0.76025,4.25741 2.31116,5.80832 1.55091,1.55091 3.49716,2.31116 5.89955,2.31116 3.98372,0 6.87267,-2.00706 7.8458,-5.41299 h -4.47028 c -0.69943,1.18599 -1.73338,1.70297 -3.3147,1.70297 z m 0,-8.81892 c 1.82461,0 3.13224,0.94271 3.6188,2.52403 h -7.268 c 0.57779,-1.58132 1.91583,-2.52403 3.6492,-2.52403 z" />
      <path
         id="path833"
         style="font-style:normal;font-variant:normal;font-weight:bold;font-stretch:normal;font-family:Steradian;-inkscape-font-specification:'Steradian Bold';stroke-width:0.88019294"
         d="m 134.54357,133.33824 v -9.73122 c 0,-3.77084 -2.49362,-6.14283 -6.62939,-6.14283 -1.91583,0 -3.52756,0.54738 -4.8352,1.61174 -1.30763,1.06435 -2.00706,2.40239 -2.09829,4.01412 h 4.47028 c 0.12164,-1.12517 1.03394,-1.8246 2.37198,-1.8246 1.30763,0 2.15912,0.76025 2.15912,1.88542 v 0.15205 l -3.80126,0.85148 c -3.77085,0.85149 -5.50422,2.46322 -5.50422,5.16971 0,2.64568 2.06788,4.40946 5.07848,4.40946 1.8246,0 3.43633,-0.79066 4.40946,-2.15911 v 1.76378 z m -7.5721,-3.22346 c -1.18599,0 -1.76378,-0.45616 -1.76378,-1.39887 0,-0.85148 0.69943,-1.39886 2.18952,-1.73337 l 2.58486,-0.54738 v 0.51697 c 0,0.82107 -0.30411,1.58132 -0.91231,2.21993 -0.57779,0.63862 -1.27722,0.94272 -2.09829,0.94272 z" />
      <path
         id="path835"
         style="font-style:normal;font-variant:normal;font-weight:bold;font-stretch:normal;font-family:Steradian;-inkscape-font-specification:'Steradian Bold';stroke-width:0.88019294"
         d="m 142.99751,124.58015 c 0,-1.73338 0.97313,-2.85855 2.55445,-2.85855 1.58132,0 2.46321,1.00353 2.46321,2.7065 v 8.91014 h 4.62233 v -8.75809 c 0,-1.73338 0.94271,-2.85855 2.55445,-2.85855 1.58132,0 2.4328,1.00353 2.4328,2.7065 v 8.91014 h 4.62233 v -10.15696 c 0,-3.43633 -2.12871,-5.71709 -5.4434,-5.71709 -2.09829,0 -3.86208,0.9123 -4.95684,2.52404 -0.94271,-1.61174 -2.55444,-2.52404 -4.62233,-2.52404 -1.8246,0 -3.43633,0.82107 -4.43987,2.28076 v -1.88543 h -4.40945 v 15.47872 h 4.62232 z" />
      <path
         id="path837"
         style="fill:#999999;stroke-width:1.29223645"
         d="m 177.82443,125.61207 h 7.67909 v -5.3575 h -7.67909 v -7.6791 h -5.35749 v 7.6791 h -7.6791 v 5.3575 h 7.6791 v 7.6791 h 5.35749 z" />
      <g
         transform="translate(0,2.593023)"
         id="text842"
         style="font-style:italic;font-variant:normal;font-weight:bold;font-stretch:normal;font-size:10.87985802px;line-height:1.25;font-family:'Bourgeois Slab';-inkscape-font-specification:'Bourgeois Slab Bold Italic';letter-spacing:0px;word-spacing:0px;stroke-width:0.23940936"
         aria-label="The next generation of Daydream">
        <path
           id="path846"
           style="font-style:normal;font-variant:normal;font-weight:300;font-stretch:normal;font-family:Steradian;-inkscape-font-specification:'Steradian Light';stroke-width:0.23940936"
           d="m 18.157864,147.04086 h 2.30653 v -0.78335 h -5.450809 v 0.78335 h 2.29565 v 6.86519 h 0.848629 z" />
        <path
           id="path848"
           style="font-style:normal;font-variant:normal;font-weight:300;font-stretch:normal;font-family:Steradian;-inkscape-font-specification:'Steradian Light';stroke-width:0.23940936"
           d="m 22.303074,150.75089 c 0,-0.48959 0.152318,-0.89215 0.446074,-1.21854 0.293756,-0.3264 0.685431,-0.48959 1.153265,-0.48959 0.924788,0 1.479661,0.58751 1.479661,1.53406 v 3.32923 h 0.815989 v -3.45979 c 0,-0.64191 -0.195837,-1.16415 -0.576632,-1.55582 -0.380795,-0.40256 -0.892149,-0.5984 -1.53406,-0.5984 -0.73983,0 -1.392622,0.36992 -1.784297,0.99007 v -3.43803 h -0.815989 v 8.06197 h 0.815989 z" />
        <path
           id="path850"
           style="font-style:normal;font-variant:normal;font-weight:300;font-stretch:normal;font-family:Steradian;-inkscape-font-specification:'Steradian Light';stroke-width:0.23940936"
           d="m 30.38679,153.31854 c -0.554873,0 -1.022707,-0.18496 -1.403502,-0.54399 -0.380795,-0.36992 -0.598392,-0.83775 -0.641911,-1.40351 h 4.863296 v -0.28287 c 0,-0.79423 -0.271996,-1.4579 -0.805109,-1.99102 -0.533113,-0.53311 -1.207665,-0.80511 -2.012774,-0.80511 -0.79423,0 -1.479661,0.28288 -2.034534,0.83775 -0.554872,0.55488 -0.826869,1.22943 -0.826869,2.02366 0,0.80511 0.271997,1.49054 0.826869,2.04541 0.554873,0.55487 1.229424,0.83775 2.034534,0.83775 1.262063,0 2.28477,-0.71807 2.676445,-1.86046 h -0.815989 c -0.337276,0.70719 -1.033587,1.14239 -1.860456,1.14239 z m 0,-4.3193 c 1.000947,0 1.806056,0.67455 1.991014,1.68637 h -4.003788 c 0.217597,-1.00094 1.022707,-1.68637 2.012774,-1.68637 z" />
        <path
           id="path852"
           style="font-style:normal;font-variant:normal;font-weight:300;font-stretch:normal;font-family:Steradian;-inkscape-font-specification:'Steradian Light';stroke-width:0.23940936"
           d="m 38.231152,150.75089 c 0,-0.48959 0.152318,-0.89215 0.446074,-1.21854 0.293756,-0.3264 0.685431,-0.48959 1.153265,-0.48959 0.946548,0 1.479661,0.58751 1.479661,1.58845 v 3.27484 h 0.815989 v -3.45979 c 0,-0.64191 -0.195837,-1.16415 -0.576632,-1.55582 -0.380795,-0.40256 -0.892149,-0.5984 -1.53406,-0.5984 -0.77247,0 -1.436142,0.3808 -1.816937,1.03359 v -0.90303 h -0.78335 v 5.48345 h 0.81599 z" />
        <path
           id="path854"
           style="font-style:normal;font-variant:normal;font-weight:300;font-stretch:normal;font-family:Steradian;-inkscape-font-specification:'Steradian Light';stroke-width:0.23940936"
           d="m 46.314868,153.31854 c -0.554873,0 -1.022707,-0.18496 -1.403502,-0.54399 -0.380795,-0.36992 -0.598392,-0.83775 -0.641912,-1.40351 h 4.863297 v -0.28287 c 0,-0.79423 -0.271997,-1.4579 -0.80511,-1.99102 -0.533113,-0.53311 -1.207664,-0.80511 -2.012773,-0.80511 -0.79423,0 -1.479661,0.28288 -2.034534,0.83775 -0.554873,0.55488 -0.826869,1.22943 -0.826869,2.02366 0,0.80511 0.271996,1.49054 0.826869,2.04541 0.554873,0.55487 1.229424,0.83775 2.034534,0.83775 1.262063,0 2.28477,-0.71807 2.676445,-1.86046 h -0.81599 c -0.337275,0.70719 -1.033586,1.14239 -1.860455,1.14239 z m 0,-4.3193 c 1.000946,0 1.806056,0.67455 1.991014,1.68637 h -4.003788 c 0.217597,-1.00094 1.022706,-1.68637 2.012774,-1.68637 z" />
        <path
           id="path856"
           style="font-style:normal;font-variant:normal;font-weight:300;font-stretch:normal;font-family:Steradian;-inkscape-font-specification:'Steradian Light';stroke-width:0.23940936"
           d="m 52.081172,151.69744 1.631979,2.20861 h 0.946547 l -2.078052,-2.79612 1.980134,-2.68733 h -0.881269 l -1.55582,2.12158 -1.544939,-2.12158 h -0.935668 l 1.980134,2.69821 -2.067173,2.78524 h 0.892148 z" />
        <path
           id="path858"
           style="font-style:normal;font-variant:normal;font-weight:300;font-stretch:normal;font-family:Steradian;-inkscape-font-specification:'Steradian Light';stroke-width:0.23940936"
           d="m 55.040477,148.4226 v 0.72895 h 0.946547 v 3.00284 c 0,1.29471 0.522234,1.88222 1.610219,1.88222 0.391675,0 0.685431,-0.0762 0.990067,-0.28288 v -0.73983 c -0.293756,0.20672 -0.533113,0.29376 -0.826869,0.29376 -0.685431,0 -0.957427,-0.30464 -0.957427,-1.20766 v -2.94845 h 1.54494 v -0.72895 h -1.54494 v -1.94749 l -0.81599,0.19584 v 1.75165 z" />
        <path
           id="path860"
           style="font-style:normal;font-variant:normal;font-weight:300;font-stretch:normal;font-family:Steradian;-inkscape-font-specification:'Steradian Light';stroke-width:0.23940936"
           d="m 62.177644,154.16717 c 0.01088,0.64191 0.271996,1.16414 0.783349,1.57758 0.511354,0.41343 1.153265,0.62015 1.925735,0.62015 0.81599,0 1.468781,-0.22848 1.958375,-0.69631 0.489593,-0.45696 0.73983,-1.05535 0.73983,-1.80606 v -5.43993 h -0.77247 v 1.00095 c -0.435194,-0.72895 -1.185904,-1.13151 -2.056293,-1.13151 -0.75071,0 -1.370862,0.26112 -1.871336,0.77247 -0.500473,0.51136 -0.75071,1.15327 -0.75071,1.90398 0,0.76159 0.250237,1.4035 0.739831,1.91485 0.500473,0.51136 1.120625,0.7616 1.860455,0.7616 0.859509,0 1.599339,-0.40256 2.034534,-1.08799 v 1.38174 c 0,1.03359 -0.76159,1.7299 -1.882216,1.7299 -0.554872,0 -1.000947,-0.14144 -1.359982,-0.41344 -0.348155,-0.27199 -0.533113,-0.64191 -0.543993,-1.08798 z m 0.794229,-3.19868 c 0,-0.55487 0.184958,-1.01183 0.543993,-1.38174 0.359036,-0.36992 0.81599,-0.55487 1.359982,-0.55487 0.533114,0 0.990068,0.18495 1.359983,0.56575 0.380795,0.38079 0.565752,0.83775 0.565752,1.37086 0,0.53311 -0.184957,1.00095 -0.565752,1.38174 -0.369915,0.3808 -0.826869,0.56575 -1.359983,0.56575 -0.543992,0 -1.000946,-0.18495 -1.359982,-0.55487 -0.359035,-0.38079 -0.543993,-0.83775 -0.543993,-1.39262 z" />
        <path
           id="path862"
           style="font-style:normal;font-variant:normal;font-weight:300;font-stretch:normal;font-family:Steradian;-inkscape-font-specification:'Steradian Light';stroke-width:0.23940936"
           d="m 71.828064,153.31854 c -0.554872,0 -1.022706,-0.18496 -1.403501,-0.54399 -0.380795,-0.36992 -0.598392,-0.83775 -0.641912,-1.40351 h 4.863297 v -0.28287 c 0,-0.79423 -0.271997,-1.4579 -0.80511,-1.99102 -0.533113,-0.53311 -1.207664,-0.80511 -2.012774,-0.80511 -0.794229,0 -1.47966,0.28288 -2.034533,0.83775 -0.554873,0.55488 -0.826869,1.22943 -0.826869,2.02366 0,0.80511 0.271996,1.49054 0.826869,2.04541 0.554873,0.55487 1.229424,0.83775 2.034533,0.83775 1.262064,0 2.284771,-0.71807 2.676446,-1.86046 h -0.81599 c -0.337275,0.70719 -1.033586,1.14239 -1.860456,1.14239 z m 0,-4.3193 c 1.000947,0 1.806057,0.67455 1.991015,1.68637 h -4.003788 c 0.217597,-1.00094 1.022706,-1.68637 2.012773,-1.68637 z" />
        <path
           id="path864"
           style="font-style:normal;font-variant:normal;font-weight:300;font-stretch:normal;font-family:Steradian;-inkscape-font-specification:'Steradian Light';stroke-width:0.23940936"
           d="m 76.854557,150.75089 c 0,-0.48959 0.152318,-0.89215 0.446074,-1.21854 0.293757,-0.3264 0.685432,-0.48959 1.153265,-0.48959 0.946548,0 1.479661,0.58751 1.479661,1.58845 v 3.27484 h 0.815989 v -3.45979 c 0,-0.64191 -0.195837,-1.16415 -0.576632,-1.55582 -0.380795,-0.40256 -0.892148,-0.5984 -1.53406,-0.5984 -0.77247,0 -1.436141,0.3808 -1.816936,1.03359 v -0.90303 h -0.78335 v 5.48345 h 0.815989 z" />
        <path
           id="path866"
           style="font-style:normal;font-variant:normal;font-weight:300;font-stretch:normal;font-family:Steradian;-inkscape-font-specification:'Steradian Light';stroke-width:0.23940936"
           d="m 84.938275,153.31854 c -0.554873,0 -1.022707,-0.18496 -1.403502,-0.54399 -0.380795,-0.36992 -0.598392,-0.83775 -0.641911,-1.40351 h 4.863296 v -0.28287 c 0,-0.79423 -0.271996,-1.4579 -0.805109,-1.99102 -0.533113,-0.53311 -1.207665,-0.80511 -2.012774,-0.80511 -0.79423,0 -1.479661,0.28288 -2.034534,0.83775 -0.554872,0.55488 -0.826869,1.22943 -0.826869,2.02366 0,0.80511 0.271997,1.49054 0.826869,2.04541 0.554873,0.55487 1.229424,0.83775 2.034534,0.83775 1.262063,0 2.28477,-0.71807 2.676445,-1.86046 h -0.815989 c -0.337276,0.70719 -1.033587,1.14239 -1.860456,1.14239 z m 0,-4.3193 c 1.000947,0 1.806056,0.67455 1.991014,1.68637 h -4.003788 c 0.217597,-1.00094 1.022707,-1.68637 2.012774,-1.68637 z" />
        <path
           id="path868"
           style="font-style:normal;font-variant:normal;font-weight:300;font-stretch:normal;font-family:Steradian;-inkscape-font-specification:'Steradian Light';stroke-width:0.23940936"
           d="m 91.727305,149.12979 c 0.174077,0 0.239357,0 0.293756,0.0109 v -0.77247 c -0.119679,-0.0109 -0.184958,-0.0218 -0.271997,-0.0218 -0.783349,0 -1.436141,0.4352 -1.816936,1.21855 v -1.14239 h -0.78335 v 5.48345 h 0.81599 v -2.8614 c 0,-0.55487 0.163198,-1.01183 0.478713,-1.37086 0.326396,-0.35904 0.750711,-0.544 1.283824,-0.544 z" />
        <path
           id="path870"
           style="font-style:normal;font-variant:normal;font-weight:300;font-stretch:normal;font-family:Steradian;-inkscape-font-specification:'Steradian Light';stroke-width:0.23940936"
           d="m 97.276015,153.90605 v -3.59035 c 0,-1.25119 -0.826869,-2.02366 -2.175971,-2.02366 -0.598393,0 -1.109746,0.17408 -1.523181,0.52224 -0.413434,0.34815 -0.652791,0.78335 -0.70719,1.31646 h 0.794229 c 0.08704,-0.66367 0.652792,-1.1315 1.425262,-1.1315 0.837749,0 1.392622,0.47871 1.392622,1.21854 v 0.087 l -2.023654,0.48959 c -1.164145,0.29376 -1.708138,0.82687 -1.708138,1.69726 0,0.44607 0.174078,0.81599 0.511354,1.10975 0.337275,0.29375 0.772469,0.43519 1.305583,0.43519 0.815989,0 1.53406,-0.39167 1.936614,-1.07711 v 0.94655 z m -2.556766,-0.55487 c -0.728951,0 -1.164145,-0.34816 -1.164145,-0.92479 0,-0.48959 0.369915,-0.82687 1.109745,-1.00095 l 1.816937,-0.43519 v 0.51135 c 0,0.50048 -0.174078,0.93567 -0.511354,1.30559 -0.337275,0.35903 -0.76159,0.54399 -1.251183,0.54399 z" />
        <path
           id="path872"
           style="font-style:normal;font-variant:normal;font-weight:300;font-stretch:normal;font-family:Steradian;-inkscape-font-specification:'Steradian Light';stroke-width:0.23940936"
           d="m 98.320456,148.4226 v 0.72895 h 0.946548 v 3.00284 c 0,1.29471 0.522233,1.88222 1.610216,1.88222 0.39168,0 0.68543,-0.0762 0.99007,-0.28288 v -0.73983 c -0.29376,0.20672 -0.53311,0.29376 -0.82687,0.29376 -0.68543,0 -0.95743,-0.30464 -0.95743,-1.20766 v -2.94845 h 1.54494 v -0.72895 h -1.54494 v -1.94749 l -0.815986,0.19584 v 1.75165 z" />
        <path
           id="path874"
           style="font-style:normal;font-variant:normal;font-weight:300;font-stretch:normal;font-family:Steradian;-inkscape-font-specification:'Steradian Light';stroke-width:0.23940936"
           d="m 102.84647,146.62743 c 0,0.33727 0.25024,0.59839 0.60928,0.59839 0.34815,0 0.62015,-0.26112 0.62015,-0.59839 0,-0.33728 -0.272,-0.5984 -0.62015,-0.5984 -0.35904,0 -0.60928,0.26112 -0.60928,0.5984 z m 1.02271,1.79517 h -0.82687 v 5.48345 h 0.82687 z" />
        <path
           id="path876"
           style="font-style:normal;font-variant:normal;font-weight:300;font-stretch:normal;font-family:Steradian;-inkscape-font-specification:'Steradian Light';stroke-width:0.23940936"
           d="m 105.28354,151.15345 c 0,0.81599 0.28287,1.50142 0.83775,2.05629 0.55487,0.55487 1.25118,0.82687 2.06717,0.82687 0.81599,0 1.5123,-0.272 2.06717,-0.82687 0.55488,-0.55487 0.83775,-1.2403 0.83775,-2.05629 0,-0.79423 -0.28287,-1.46878 -0.83775,-2.02366 -0.55487,-0.55487 -1.25118,-0.83775 -2.06717,-0.83775 -0.81599,0 -1.5123,0.28288 -2.06717,0.83775 -0.55488,0.55488 -0.83775,1.22943 -0.83775,2.02366 z m 5.00473,0 c 0,0.59839 -0.20672,1.09886 -0.60927,1.5123 -0.40255,0.40255 -0.89215,0.60927 -1.49054,0.60927 -0.58751,0 -1.08799,-0.20672 -1.49054,-0.60927 -0.40256,-0.41344 -0.59839,-0.91391 -0.59839,-1.5123 0,-0.58751 0.19583,-1.08799 0.59839,-1.49054 0.40255,-0.40256 0.90303,-0.60928 1.49054,-0.60928 0.59839,0 1.08799,0.20672 1.49054,0.60928 0.40255,0.40255 0.60927,0.90303 0.60927,1.49054 z" />
        <path
           id="path878"
           style="font-style:normal;font-variant:normal;font-weight:300;font-stretch:normal;font-family:Steradian;-inkscape-font-specification:'Steradian Light';stroke-width:0.23940936"
           d="m 113.30198,150.75089 c 0,-0.48959 0.15232,-0.89215 0.44607,-1.21854 0.29376,-0.3264 0.68543,-0.48959 1.15327,-0.48959 0.94655,0 1.47966,0.58751 1.47966,1.58845 v 3.27484 h 0.81599 v -3.45979 c 0,-0.64191 -0.19584,-1.16415 -0.57663,-1.55582 -0.3808,-0.40256 -0.89215,-0.5984 -1.53406,-0.5984 -0.77247,0 -1.43615,0.3808 -1.81694,1.03359 v -0.90303 h -0.78335 v 5.48345 h 0.81599 z" />
        <path
           id="path880"
           style="font-style:normal;font-variant:normal;font-weight:300;font-stretch:normal;font-family:Steradian;-inkscape-font-specification:'Steradian Light';stroke-width:0.23940936"
           d="m 121.34216,151.15345 c 0,0.81599 0.28288,1.50142 0.83775,2.05629 0.55487,0.55487 1.25118,0.82687 2.06717,0.82687 0.81599,0 1.5123,-0.272 2.06718,-0.82687 0.55487,-0.55487 0.83775,-1.2403 0.83775,-2.05629 0,-0.79423 -0.28288,-1.46878 -0.83775,-2.02366 -0.55488,-0.55487 -1.25119,-0.83775 -2.06718,-0.83775 -0.81599,0 -1.5123,0.28288 -2.06717,0.83775 -0.55487,0.55488 -0.83775,1.22943 -0.83775,2.02366 z m 5.00474,0 c 0,0.59839 -0.20672,1.09886 -0.60928,1.5123 -0.40255,0.40255 -0.89214,0.60927 -1.49054,0.60927 -0.58751,0 -1.08798,-0.20672 -1.49054,-0.60927 -0.40255,-0.41344 -0.59839,-0.91391 -0.59839,-1.5123 0,-0.58751 0.19584,-1.08799 0.59839,-1.49054 0.40256,-0.40256 0.90303,-0.60928 1.49054,-0.60928 0.5984,0 1.08799,0.20672 1.49054,0.60928 0.40256,0.40255 0.60928,0.90303 0.60928,1.49054 z" />
        <path
           id="path882"
           style="font-style:normal;font-variant:normal;font-weight:300;font-stretch:normal;font-family:Steradian;-inkscape-font-specification:'Steradian Light';stroke-width:0.23940936"
           d="m 129.58907,149.15155 h 1.54494 v -0.72895 h -1.54494 v -0.63103 c 0,-0.92479 0.40255,-1.33822 1.2403,-1.33822 0.17408,0 0.31552,0.0109 0.544,0.0653 v -0.72895 c -0.20672,-0.0435 -0.44608,-0.0762 -0.67456,-0.0762 -1.26206,0 -1.92573,0.71807 -1.92573,2.06717 v 0.64191 h -0.96831 v 0.72895 h 0.96831 v 4.7545 h 0.81599 z" />
        <path
           id="path884"
           style="font-style:normal;font-variant:normal;font-weight:300;font-stretch:normal;font-family:Steradian;-inkscape-font-specification:'Steradian Light';stroke-width:0.23940936"
           d="m 137.47694,153.90605 c 1.20766,0 2.18685,-0.34815 2.94844,-1.04446 0.77247,-0.7072 1.15326,-1.64286 1.15326,-2.80701 0,-1.15326 -0.38079,-2.07805 -1.15326,-2.76348 -0.76159,-0.68543 -1.74078,-1.03359 -2.94844,-1.03359 h -2.58941 v 7.64854 z m -0.0218,-6.84343 c 0.9683,0 1.74077,0.272 2.33917,0.80511 0.59839,0.53311 0.89214,1.26206 0.89214,2.18685 0,0.93567 -0.29375,1.6755 -0.89214,2.23037 -0.5984,0.544 -1.37087,0.81599 -2.33917,0.81599 h -1.71902 v -6.03832 z" />
        <path
           id="path886"
           style="font-style:normal;font-variant:normal;font-weight:300;font-stretch:normal;font-family:Steradian;-inkscape-font-specification:'Steradian Light';stroke-width:0.23940936"
           d="m 147.23615,153.90605 v -3.59035 c 0,-1.25119 -0.82687,-2.02366 -2.17597,-2.02366 -0.59839,0 -1.10975,0.17408 -1.52318,0.52224 -0.41343,0.34815 -0.65279,0.78335 -0.70719,1.31646 h 0.79423 c 0.087,-0.66367 0.65279,-1.1315 1.42526,-1.1315 0.83775,0 1.39262,0.47871 1.39262,1.21854 v 0.087 l -2.02365,0.48959 c -1.16415,0.29376 -1.70814,0.82687 -1.70814,1.69726 0,0.44607 0.17408,0.81599 0.51135,1.10975 0.33728,0.29375 0.77247,0.43519 1.30559,0.43519 0.81599,0 1.53406,-0.39167 1.93661,-1.07711 v 0.94655 z m -2.55677,-0.55487 c -0.72895,0 -1.16414,-0.34816 -1.16414,-0.92479 0,-0.48959 0.36992,-0.82687 1.10975,-1.00095 l 1.81693,-0.43519 v 0.51135 c 0,0.50048 -0.17408,0.93567 -0.51135,1.30559 -0.33728,0.35903 -0.76159,0.54399 -1.25119,0.54399 z" />
        <path
           id="path888"
           style="font-style:normal;font-variant:normal;font-weight:300;font-stretch:normal;font-family:Steradian;-inkscape-font-specification:'Steradian Light';stroke-width:0.23940936"
           d="m 150.83735,152.94862 -1.74077,-4.52602 h -0.85951 l 2.19773,5.54873 -0.84863,2.24125 h 0.81599 l 3.01372,-7.78998 h -0.84863 z" />
        <path
           id="path890"
           style="font-style:normal;font-variant:normal;font-weight:300;font-stretch:normal;font-family:Steradian;-inkscape-font-specification:'Steradian Light';stroke-width:0.23940936"
           d="m 156.77775,154.03661 c 0.94655,0 1.7843,-0.46783 2.26301,-1.26206 v 1.1315 h 0.77247 v -8.06197 h -0.81599 v 3.63387 c -0.47871,-0.75071 -1.28382,-1.18591 -2.19773,-1.18591 -0.79423,0 -1.46878,0.272 -2.00189,0.82687 -0.53312,0.55488 -0.79423,1.24031 -0.79423,2.0563 0,0.81599 0.26111,1.49054 0.79423,2.04541 0.53311,0.54399 1.1859,0.81599 1.98013,0.81599 z m -1.93661,-2.87228 c 0,-0.59839 0.19583,-1.09887 0.59839,-1.50142 0.40255,-0.41344 0.90303,-0.62015 1.50142,-0.62015 0.58751,0 1.0771,0.20671 1.47966,0.62015 0.40255,0.40255 0.60927,0.90303 0.60927,1.50142 0,0.59839 -0.20672,1.09886 -0.60927,1.5123 -0.40256,0.40255 -0.89215,0.60927 -1.47966,0.60927 -0.59839,0 -1.09887,-0.20672 -1.50142,-0.60927 -0.40256,-0.41344 -0.59839,-0.91391 -0.59839,-1.5123 z" />
        <path
           id="path892"
           style="font-style:normal;font-variant:normal;font-weight:300;font-stretch:normal;font-family:Steradian;-inkscape-font-specification:'Steradian Light';stroke-width:0.23940936"
           d="m 164.24132,149.12979 c 0.17408,0 0.23936,0 0.29376,0.0109 v -0.77247 c -0.11968,-0.0109 -0.18496,-0.0218 -0.272,-0.0218 -0.78335,0 -1.43614,0.4352 -1.81694,1.21855 v -1.14239 h -0.78335 v 5.48345 h 0.81599 v -2.8614 c 0,-0.55487 0.1632,-1.01183 0.47872,-1.37086 0.32639,-0.35904 0.75071,-0.544 1.28382,-0.544 z" />
        <path
           id="path894"
           style="font-style:normal;font-variant:normal;font-weight:300;font-stretch:normal;font-family:Steradian;-inkscape-font-specification:'Steradian Light';stroke-width:0.23940936"
           d="m 167.9622,153.31854 c -0.55487,0 -1.02271,-0.18496 -1.4035,-0.54399 -0.3808,-0.36992 -0.59839,-0.83775 -0.64191,-1.40351 h 4.86329 v -0.28287 c 0,-0.79423 -0.27199,-1.4579 -0.80511,-1.99102 -0.53311,-0.53311 -1.20766,-0.80511 -2.01277,-0.80511 -0.79423,0 -1.47966,0.28288 -2.03453,0.83775 -0.55488,0.55488 -0.82687,1.22943 -0.82687,2.02366 0,0.80511 0.27199,1.49054 0.82687,2.04541 0.55487,0.55487 1.22942,0.83775 2.03453,0.83775 1.26206,0 2.28477,-0.71807 2.67645,-1.86046 h -0.81599 c -0.33728,0.70719 -1.03359,1.14239 -1.86046,1.14239 z m 0,-4.3193 c 1.00095,0 1.80606,0.67455 1.99101,1.68637 h -4.00378 c 0.21759,-1.00094 1.0227,-1.68637 2.01277,-1.68637 z" />
        <path
           id="path896"
           style="font-style:normal;font-variant:normal;font-weight:300;font-stretch:normal;font-family:Steradian;-inkscape-font-specification:'Steradian Light';stroke-width:0.23940936"
           d="m 176.35058,153.90605 v -3.59035 c 0,-1.25119 -0.82687,-2.02366 -2.17597,-2.02366 -0.5984,0 -1.10975,0.17408 -1.52318,0.52224 -0.41344,0.34815 -0.6528,0.78335 -0.7072,1.31646 h 0.79423 c 0.087,-0.66367 0.6528,-1.1315 1.42527,-1.1315 0.83774,0 1.39262,0.47871 1.39262,1.21854 v 0.087 l -2.02366,0.48959 c -1.16414,0.29376 -1.70813,0.82687 -1.70813,1.69726 0,0.44607 0.17407,0.81599 0.51135,1.10975 0.33728,0.29375 0.77247,0.43519 1.30558,0.43519 0.81599,0 1.53406,-0.39167 1.93662,-1.07711 v 0.94655 z m -2.55677,-0.55487 c -0.72895,0 -1.16414,-0.34816 -1.16414,-0.92479 0,-0.48959 0.36991,-0.82687 1.10974,-1.00095 l 1.81694,-0.43519 v 0.51135 c 0,0.50048 -0.17408,0.93567 -0.51136,1.30559 -0.33727,0.35903 -0.76159,0.54399 -1.25118,0.54399 z" />
        <path
           id="path898"
           style="font-style:normal;font-variant:normal;font-weight:300;font-stretch:normal;font-family:Steradian;-inkscape-font-specification:'Steradian Light';stroke-width:0.23940936"
           d="m 178.95084,150.75089 c 0,-0.48959 0.14144,-0.89215 0.4352,-1.21854 0.29375,-0.3264 0.66367,-0.48959 1.10974,-0.48959 0.90303,0 1.43615,0.58751 1.43615,1.53406 v 3.32923 h 0.81598 v -3.15516 c 0,-0.48959 0.14144,-0.89215 0.4352,-1.21854 0.29376,-0.3264 0.66367,-0.48959 1.10974,-0.48959 0.90303,0 1.43615,0.58751 1.43615,1.53406 v 3.32923 h 0.81598 v -3.45979 c 0,-0.64191 -0.18495,-1.16415 -0.56575,-1.55582 -0.38079,-0.40256 -0.88127,-0.5984 -1.50142,-0.5984 -0.83775,0 -1.53406,0.42432 -1.91485,1.16415 -0.31552,-0.73983 -1.00095,-1.16415 -1.88222,-1.16415 -0.73983,0 -1.4035,0.3808 -1.76254,1.03359 v -0.90303 h -0.78335 v 5.48345 h 0.81599 z" />
      </g>
      <path
         id="rect844"
         d="M 14.699824,143.89093 H 187.08866 v 0.60136 H 14.699824 Z"
         style="fill:#cccccc;fill-opacity:1;stroke:none;stroke-width:1.07719874;stroke-linecap:square;stroke-linejoin:round;stroke-miterlimit:4;stroke-dasharray:none;stroke-dashoffset:0;stroke-opacity:1;paint-order:normal" />
    </g>
  </g>
</svg>
